{
    "totalItems": 20,
    "totalPages": 2,
    "currentPage": 1,
    "products": [
        {
            "id": 1,
            "name": "Organic Green Tea",
            "supplierId": "e2a69490-16aa-4c1f-9e73-0a9165bc524b",
            "categoryId": "77efa121-8179-4092-9122-4ba280e7cff0",
            "subCategoryId": "4953efd8-44dc-4100-9cc2-5c5478a01059",
            "description": "This is a high-quality product: Organic Green Tea",
            "technicalDatasheetUrl": "https://example.com/datasheet.pdf",
            "productOrigin": "USA",
            "region": "North America",
            "packaging": "Box",
            "unit": "kg",
            "quantity": 755,
            "annualSellerProductVolume": 1405,
            "annualSellerVolume": 8738,
            "storage": "Dry Place",
            "overallRating": "4.34",
            "reviewCount": 223,
            "minimumOrderQuantity": 35,
            "attributes": {
                "size": "M",
                "color": "red"
            },
            "expectedDeliveryDays": "4 days",
            "deliveryDestinations": "Worldwide",
            "deliveryType": "Air Freight",
            "paymentOptions": {
                "methods": [
                    "Credit Card",
                    "Wire Transfer"
                ]
            },
            "metadata": {
                "createdBy": "SeederScript"
            },
            "createdAt": "2025-05-07T07:43:33.353Z",
            "updatedAt": "2025-05-07T07:43:33.353Z",
            "ProductPrice": {
                "id": 21,
                "productId": 1,
                "priceType": null,
                "lowPrice": null,
                "highPrice": null,
                "price": 807.26
            },
            "ProductImages": [
                {
                    "id": 51,
                    "productId": 1,
                    "imageUrl": "https://picsum.photos/seed/Organic%20Green%20Tea-2/600/400",
                    "thumbnail": "https://picsum.photos/seed/Organic%20Green%20Tea-2-thumb/150/100",
                    "sortOrder": 3,
                    "type": "main"
                },
                {
                    "id": 50,
                    "productId": 1,
                    "imageUrl": "https://picsum.photos/seed/Organic%20Green%20Tea-1/600/400",
                    "thumbnail": "https://picsum.photos/seed/Organic%20Green%20Tea-1-thumb/150/100",
                    "sortOrder": 2,
                    "type": "main"
                },
                {
                    "id": 49,
                    "productId": 1,
                    "imageUrl": "https://picsum.photos/seed/Organic%20Green%20Tea-0/600/400",
                    "thumbnail": "https://picsum.photos/seed/Organic%20Green%20Tea-0-thumb/150/100",
                    "sortOrder": 1,
                    "type": "main"
                }
            ],
            "ProductTags": [
                {
                    "productId": 1,
                    "tag": "Tag1-1"
                },
                {
                    "productId": 1,
                    "tag": "Tag2-1"
                }
            ]
        },
        {
            "id": 2,
            "name": "Bluetooth Headphones",
            "supplierId": "8d4f9da6-83ae-423d-b0d4-ea52f7879e79",
            "categoryId": "6df43ea6-824b-4d9d-9e39-18cc6c4dcba6",
            "subCategoryId": "b11b278c-9b4f-429a-90dc-b46269985b3e",
            "description": "This is a high-quality product: Bluetooth Headphones",
            "technicalDatasheetUrl": "https://example.com/datasheet.pdf",
            "productOrigin": "USA",
            "region": "North America",
            "packaging": "Box",
            "unit": "kg",
            "quantity": 775,
            "annualSellerProductVolume": 2790,
            "annualSellerVolume": 9313,
            "storage": "Dry Place",
            "overallRating": "0.23",
            "reviewCount": 171,
            "minimumOrderQuantity": 28,
            "attributes": {
                "size": "M",
                "color": "red"
            },
            "expectedDeliveryDays": "5 days",
            "deliveryDestinations": "Worldwide",
            "deliveryType": "Air Freight",
            "paymentOptions": {
                "methods": [
                    "Credit Card",
                    "Wire Transfer"
                ]
            },
            "metadata": {
                "createdBy": "SeederScript"
            },
            "createdAt": "2025-05-07T07:43:33.353Z",
            "updatedAt": "2025-05-07T07:43:33.353Z",
            "ProductPrice": {
                "id": 22,
                "productId": 2,
                "priceType": null,
                "lowPrice": null,
                "highPrice": null,
                "price": 614.47
            },
            "ProductImages": [
                {
                    "id": 53,
                    "productId": 2,
                    "imageUrl": "https://picsum.photos/seed/Bluetooth%20Headphones-1/600/400",
                    "thumbnail": "https://picsum.photos/seed/Bluetooth%20Headphones-1-thumb/150/100",
                    "sortOrder": 2,
                    "type": "main"
                },
                {
                    "id": 52,
                    "productId": 2,
                    "imageUrl": "https://picsum.photos/seed/Bluetooth%20Headphones-0/600/400",
                    "thumbnail": "https://picsum.photos/seed/Bluetooth%20Headphones-0-thumb/150/100",
                    "sortOrder": 1,
                    "type": "main"
                }
            ],
            "ProductTags": [
                {
                    "productId": 2,
                    "tag": "Tag1-2"
                },
                {
                    "productId": 2,
                    "tag": "Tag2-2"
                }
            ]
        },
        {
            "id": 3,
            "name": "LED Desk Lamp",
            "supplierId": "8d4f9da6-83ae-423d-b0d4-ea52f7879e79",
            "categoryId": "6df43ea6-824b-4d9d-9e39-18cc6c4dcba6",
            "subCategoryId": "972e1cab-3425-46a1-a2c8-0ec7772d663c",
            "description": "This is a high-quality product: LED Desk Lamp",
            "technicalDatasheetUrl": "https://example.com/datasheet.pdf",
            "productOrigin": "USA",
            "region": "North America",
            "packaging": "Box",
            "unit": "kg",
            "quantity": 553,
            "annualSellerProductVolume": 3192,
            "annualSellerVolume": 19934,
            "storage": "Dry Place",
            "overallRating": "1.61",
            "reviewCount": 451,
            "minimumOrderQuantity": 1,
            "attributes": {
                "size": "M",
                "color": "red"
            },
            "expectedDeliveryDays": "10 days",
            "deliveryDestinations": "Worldwide",
            "deliveryType": "Air Freight",
            "paymentOptions": {
                "methods": [
                    "Credit Card",
                    "Wire Transfer"
                ]
            },
            "metadata": {
                "createdBy": "SeederScript"
            },
            "createdAt": "2025-05-07T07:43:33.353Z",
            "updatedAt": "2025-05-07T07:43:33.353Z",
            "ProductPrice": {
                "id": 23,
                "productId": 3,
                "priceType": null,
                "lowPrice": null,
                "highPrice": null,
                "price": 433.44
            },
            "ProductImages": [
                {
                    "id": 54,
                    "productId": 3,
                    "imageUrl": "https://picsum.photos/seed/LED%20Desk%20Lamp-0/600/400",
                    "thumbnail": "https://picsum.photos/seed/LED%20Desk%20Lamp-0-thumb/150/100",
                    "sortOrder": 1,
                    "type": "main"
                }
            ],
            "ProductTags": [
                {
                    "productId": 3,
                    "tag": "Tag1-3"
                },
                {
                    "productId": 3,
                    "tag": "Tag2-3"
                },
                {
                    "productId": 3,
                    "tag": "Tag3-3"
                }
            ]
        },
        {
            "id": 4,
            "name": "Eco-Friendly Notebook",
            "supplierId": "e2a69490-16aa-4c1f-9e73-0a9165bc524b",
            "categoryId": "77efa121-8179-4092-9122-4ba280e7cff0",
            "subCategoryId": "3843101e-3093-4481-97cb-ad05d1cc2302",
            "description": "This is a high-quality product: Eco-Friendly Notebook",
            "technicalDatasheetUrl": "https://example.com/datasheet.pdf",
            "productOrigin": "USA",
            "region": "North America",
            "packaging": "Box",
            "unit": "kg",
            "quantity": 547,
            "annualSellerProductVolume": 286,
            "annualSellerVolume": 3789,
            "storage": "Dry Place",
            "overallRating": "3.94",
            "reviewCount": 109,
            "minimumOrderQuantity": 34,
            "attributes": {
                "size": "M",
                "color": "red"
            },
            "expectedDeliveryDays": "6 days",
            "deliveryDestinations": "Worldwide",
            "deliveryType": "Air Freight",
            "paymentOptions": {
                "methods": [
                    "Credit Card",
                    "Wire Transfer"
                ]
            },
            "metadata": {
                "createdBy": "SeederScript"
            },
            "createdAt": "2025-05-07T07:43:33.353Z",
            "updatedAt": "2025-05-07T07:43:33.353Z",
            "ProductPrice": {
                "id": 24,
                "productId": 4,
                "priceType": null,
                "lowPrice": null,
                "highPrice": null,
                "price": 729.51
            },
            "ProductImages": [
                {
                    "id": 56,
                    "productId": 4,
                    "imageUrl": "https://picsum.photos/seed/Eco-Friendly%20Notebook-1/600/400",
                    "thumbnail": "https://picsum.photos/seed/Eco-Friendly%20Notebook-1-thumb/150/100",
                    "sortOrder": 2,
                    "type": "main"
                },
                {
                    "id": 55,
                    "productId": 4,
                    "imageUrl": "https://picsum.photos/seed/Eco-Friendly%20Notebook-0/600/400",
                    "thumbnail": "https://picsum.photos/seed/Eco-Friendly%20Notebook-0-thumb/150/100",
                    "sortOrder": 1,
                    "type": "main"
                }
            ],
            "ProductTags": [
                {
                    "productId": 4,
                    "tag": "Tag1-4"
                }
            ]
        },
        {
            "id": 5,
            "name": "Portable Power Bank",
            "supplierId": "2330b10b-2b6f-4111-ac42-81b380b6ea89",
            "categoryId": "77efa121-8179-4092-9122-4ba280e7cff0",
            "subCategoryId": "3843101e-3093-4481-97cb-ad05d1cc2302",
            "description": "This is a high-quality product: Portable Power Bank",
            "technicalDatasheetUrl": "https://example.com/datasheet.pdf",
            "productOrigin": "USA",
            "region": "North America",
            "packaging": "Box",
            "unit": "kg",
            "quantity": 303,
            "annualSellerProductVolume": 3804,
            "annualSellerVolume": 4943,
            "storage": "Dry Place",
            "overallRating": "4.02",
            "reviewCount": 445,
            "minimumOrderQuantity": 21,
            "attributes": {
                "size": "M",
                "color": "red"
            },
            "expectedDeliveryDays": "9 days",
            "deliveryDestinations": "Worldwide",
            "deliveryType": "Air Freight",
            "paymentOptions": {
                "methods": [
                    "Credit Card",
                    "Wire Transfer"
                ]
            },
            "metadata": {
                "createdBy": "SeederScript"
            },
            "createdAt": "2025-05-07T07:43:33.353Z",
            "updatedAt": "2025-05-07T07:43:33.353Z",
            "ProductPrice": {
                "id": 25,
                "productId": 5,
                "priceType": null,
                "lowPrice": null,
                "highPrice": null,
                "price": 817.53
            },
            "ProductImages": [
                {
                    "id": 57,
                    "productId": 5,
                    "imageUrl": "https://picsum.photos/seed/Portable%20Power%20Bank-0/600/400",
                    "thumbnail": "https://picsum.photos/seed/Portable%20Power%20Bank-0-thumb/150/100",
                    "sortOrder": 1,
                    "type": "main"
                }
            ],
            "ProductTags": [
                {
                    "productId": 5,
                    "tag": "Tag1-5"
                },
                {
                    "productId": 5,
                    "tag": "Tag2-5"
                },
                {
                    "productId": 5,
                    "tag": "Tag3-5"
                }
            ]
        },
        {
            "id": 6,
            "name": "Wireless Mouse",
            "supplierId": "5e8dd846-ce44-4cf2-b521-4b33e8313154",
            "categoryId": "da850938-1175-43f6-adc6-be45db0dec32",
            "subCategoryId": "5aad7eeb-80e1-4ac4-817c-10708a0e6824",
            "description": "This is a high-quality product: Wireless Mouse",
            "technicalDatasheetUrl": "https://example.com/datasheet.pdf",
            "productOrigin": "USA",
            "region": "North America",
            "packaging": "Box",
            "unit": "kg",
            "quantity": 786,
            "annualSellerProductVolume": 107,
            "annualSellerVolume": 5009,
            "storage": "Dry Place",
            "overallRating": "1.90",
            "reviewCount": 354,
            "minimumOrderQuantity": 41,
            "attributes": {
                "size": "M",
                "color": "red"
            },
            "expectedDeliveryDays": "5 days",
            "deliveryDestinations": "Worldwide",
            "deliveryType": "Air Freight",
            "paymentOptions": {
                "methods": [
                    "Credit Card",
                    "Wire Transfer"
                ]
            },
            "metadata": {
                "createdBy": "SeederScript"
            },
            "createdAt": "2025-05-07T07:43:33.353Z",
            "updatedAt": "2025-05-07T07:43:33.353Z",
            "ProductPrice": {
                "id": 26,
                "productId": 6,
                "priceType": null,
                "lowPrice": null,
                "highPrice": null,
                "price": 301.93
            },
            "ProductImages": [
                {
                    "id": 60,
                    "productId": 6,
                    "imageUrl": "https://picsum.photos/seed/Wireless%20Mouse-2/600/400",
                    "thumbnail": "https://picsum.photos/seed/Wireless%20Mouse-2-thumb/150/100",
                    "sortOrder": 3,
                    "type": "main"
                },
                {
                    "id": 59,
                    "productId": 6,
                    "imageUrl": "https://picsum.photos/seed/Wireless%20Mouse-1/600/400",
                    "thumbnail": "https://picsum.photos/seed/Wireless%20Mouse-1-thumb/150/100",
                    "sortOrder": 2,
                    "type": "main"
                },
                {
                    "id": 58,
                    "productId": 6,
                    "imageUrl": "https://picsum.photos/seed/Wireless%20Mouse-0/600/400",
                    "thumbnail": "https://picsum.photos/seed/Wireless%20Mouse-0-thumb/150/100",
                    "sortOrder": 1,
                    "type": "main"
                }
            ],
            "ProductTags": [
                {
                    "productId": 6,
                    "tag": "Tag1-6"
                }
            ]
        },
        {
            "id": 7,
            "name": "Ceramic Coffee Mug",
            "supplierId": "f899ff1f-2214-4dda-9148-67a3261f419b",
            "categoryId": "ed418d4a-316a-4f3c-9173-aef22ac21cc1",
            "subCategoryId": "a2f8e5e7-78ab-42fe-b240-c662cb52101a",
            "description": "This is a high-quality product: Ceramic Coffee Mug",
            "technicalDatasheetUrl": "https://example.com/datasheet.pdf",
            "productOrigin": "USA",
            "region": "North America",
            "packaging": "Box",
            "unit": "kg",
            "quantity": 658,
            "annualSellerProductVolume": 4883,
            "annualSellerVolume": 17668,
            "storage": "Dry Place",
            "overallRating": "1.91",
            "reviewCount": 141,
            "minimumOrderQuantity": 4,
            "attributes": {
                "size": "M",
                "color": "red"
            },
            "expectedDeliveryDays": "1 days",
            "deliveryDestinations": "Worldwide",
            "deliveryType": "Air Freight",
            "paymentOptions": {
                "methods": [
                    "Credit Card",
                    "Wire Transfer"
                ]
            },
            "metadata": {
                "createdBy": "SeederScript"
            },
            "createdAt": "2025-05-07T07:43:33.353Z",
            "updatedAt": "2025-05-07T07:43:33.353Z",
            "ProductPrice": {
                "id": 27,
                "productId": 7,
                "priceType": null,
                "lowPrice": null,
                "highPrice": null,
                "price": 276.97
            },
            "ProductImages": [
                {
                    "id": 63,
                    "productId": 7,
                    "imageUrl": "https://picsum.photos/seed/Ceramic%20Coffee%20Mug-2/600/400",
                    "thumbnail": "https://picsum.photos/seed/Ceramic%20Coffee%20Mug-2-thumb/150/100",
                    "sortOrder": 3,
                    "type": "main"
                },
                {
                    "id": 62,
                    "productId": 7,
                    "imageUrl": "https://picsum.photos/seed/Ceramic%20Coffee%20Mug-1/600/400",
                    "thumbnail": "https://picsum.photos/seed/Ceramic%20Coffee%20Mug-1-thumb/150/100",
                    "sortOrder": 2,
                    "type": "main"
                },
                {
                    "id": 61,
                    "productId": 7,
                    "imageUrl": "https://picsum.photos/seed/Ceramic%20Coffee%20Mug-0/600/400",
                    "thumbnail": "https://picsum.photos/seed/Ceramic%20Coffee%20Mug-0-thumb/150/100",
                    "sortOrder": 1,
                    "type": "main"
                }
            ],
            "ProductTags": [
                {
                    "productId": 7,
                    "tag": "Tag1-7"
                },
                {
                    "productId": 7,
                    "tag": "Tag2-7"
                }
            ]
        },
        {
            "id": 8,
            "name": "Fitness Resistance Bands",
            "supplierId": "f899ff1f-2214-4dda-9148-67a3261f419b",
            "categoryId": "6df43ea6-824b-4d9d-9e39-18cc6c4dcba6",
            "subCategoryId": "a5d719f4-f547-4dd5-b613-aecd7848894c",
            "description": "This is a high-quality product: Fitness Resistance Bands",
            "technicalDatasheetUrl": "https://example.com/datasheet.pdf",
            "productOrigin": "USA",
            "region": "North America",
            "packaging": "Box",
            "unit": "kg",
            "quantity": 85,
            "annualSellerProductVolume": 1522,
            "annualSellerVolume": 6062,
            "storage": "Dry Place",
            "overallRating": "3.89",
            "reviewCount": 73,
            "minimumOrderQuantity": 48,
            "attributes": {
                "size": "M",
                "color": "red"
            },
            "expectedDeliveryDays": "5 days",
            "deliveryDestinations": "Worldwide",
            "deliveryType": "Air Freight",
            "paymentOptions": {
                "methods": [
                    "Credit Card",
                    "Wire Transfer"
                ]
            },
            "metadata": {
                "createdBy": "SeederScript"
            },
            "createdAt": "2025-05-07T07:43:33.353Z",
            "updatedAt": "2025-05-07T07:43:33.353Z",
            "ProductPrice": {
                "id": 28,
                "productId": 8,
                "priceType": null,
                "lowPrice": null,
                "highPrice": null,
                "price": 946.24
            },
            "ProductImages": [
                {
                    "id": 64,
                    "productId": 8,
                    "imageUrl": "https://picsum.photos/seed/Fitness%20Resistance%20Bands-0/600/400",
                    "thumbnail": "https://picsum.photos/seed/Fitness%20Resistance%20Bands-0-thumb/150/100",
                    "sortOrder": 1,
                    "type": "main"
                }
            ],
            "ProductTags": [
                {
                    "productId": 8,
                    "tag": "Tag1-8"
                }
            ]
        },
        {
            "id": 9,
            "name": "Reusable Water Bottle",
            "supplierId": "2330b10b-2b6f-4111-ac42-81b380b6ea89",
            "categoryId": "77efa121-8179-4092-9122-4ba280e7cff0",
            "subCategoryId": "fa4678f2-8c53-4c1e-800c-a1d368aded70",
            "description": "This is a high-quality product: Reusable Water Bottle",
            "technicalDatasheetUrl": "https://example.com/datasheet.pdf",
            "productOrigin": "USA",
            "region": "North America",
            "packaging": "Box",
            "unit": "kg",
            "quantity": 596,
            "annualSellerProductVolume": 4769,
            "annualSellerVolume": 3137,
            "storage": "Dry Place",
            "overallRating": "0.86",
            "reviewCount": 274,
            "minimumOrderQuantity": 40,
            "attributes": {
                "size": "M",
                "color": "red"
            },
            "expectedDeliveryDays": "2 days",
            "deliveryDestinations": "Worldwide",
            "deliveryType": "Air Freight",
            "paymentOptions": {
                "methods": [
                    "Credit Card",
                    "Wire Transfer"
                ]
            },
            "metadata": {
                "createdBy": "SeederScript"
            },
            "createdAt": "2025-05-07T07:43:33.353Z",
            "updatedAt": "2025-05-07T07:43:33.353Z",
            "ProductPrice": {
                "id": 29,
                "productId": 9,
                "priceType": null,
                "lowPrice": null,
                "highPrice": null,
                "price": 339
            },
            "ProductImages": [
                {
                    "id": 66,
                    "productId": 9,
                    "imageUrl": "https://picsum.photos/seed/Reusable%20Water%20Bottle-1/600/400",
                    "thumbnail": "https://picsum.photos/seed/Reusable%20Water%20Bottle-1-thumb/150/100",
                    "sortOrder": 2,
                    "type": "main"
                },
                {
                    "id": 65,
                    "productId": 9,
                    "imageUrl": "https://picsum.photos/seed/Reusable%20Water%20Bottle-0/600/400",
                    "thumbnail": "https://picsum.photos/seed/Reusable%20Water%20Bottle-0-thumb/150/100",
                    "sortOrder": 1,
                    "type": "main"
                }
            ],
            "ProductTags": [
                {
                    "productId": 9,
                    "tag": "Tag1-9"
                }
            ]
        },
        {
            "id": 10,
            "name": "Laptop Sleeve 15 inch",
            "supplierId": "e2a69490-16aa-4c1f-9e73-0a9165bc524b",
            "categoryId": "ed418d4a-316a-4f3c-9173-aef22ac21cc1",
            "subCategoryId": "0b82e064-9972-40bd-9436-cf91dae631c8",
            "description": "This is a high-quality product: Laptop Sleeve 15 inch",
            "technicalDatasheetUrl": "https://example.com/datasheet.pdf",
            "productOrigin": "USA",
            "region": "North America",
            "packaging": "Box",
            "unit": "kg",
            "quantity": 955,
            "annualSellerProductVolume": 4466,
            "annualSellerVolume": 11694,
            "storage": "Dry Place",
            "overallRating": "3.93",
            "reviewCount": 31,
            "minimumOrderQuantity": 10,
            "attributes": {
                "size": "M",
                "color": "red"
            },
            "expectedDeliveryDays": "1 days",
            "deliveryDestinations": "Worldwide",
            "deliveryType": "Air Freight",
            "paymentOptions": {
                "methods": [
                    "Credit Card",
                    "Wire Transfer"
                ]
            },
            "metadata": {
                "createdBy": "SeederScript"
            },
            "createdAt": "2025-05-07T07:43:33.353Z",
            "updatedAt": "2025-05-07T07:43:33.353Z",
            "ProductPrice": {
                "id": 30,
                "productId": 10,
                "priceType": null,
                "lowPrice": null,
                "highPrice": null,
                "price": 920.67
            },
            "ProductImages": [
                {
                    "id": 67,
                    "productId": 10,
                    "imageUrl": "https://picsum.photos/seed/Laptop%20Sleeve%2015%20inch-0/600/400",
                    "thumbnail": "https://picsum.photos/seed/Laptop%20Sleeve%2015%20inch-0-thumb/150/100",
                    "sortOrder": 1,
                    "type": "main"
                }
            ],
            "ProductTags": [
                {
                    "productId": 10,
                    "tag": "Tag1-10"
                },
                {
                    "productId": 10,
                    "tag": "Tag2-10"
                },
                {
                    "productId": 10,
                    "tag": "Tag3-10"
                }
            ]
        }
    ]
}